Voltage2Wavelength/data/实验数据/01号taper不同耦合方式/4.6 10hz/贴住1vv.csv

Record Length,Analog:7000,,,,
Sample Interval,CH1:0.0000010000000 CH2:0.0000010000000,,,,
Vertical Units,CH1:V CH2:V,,,,
Vertical Scale,CH1:0.05 CH2:0.50,,,,
Vertical Offset,CH1:-0.17100 CH2:-0.13000,,,,
Horizontal Units,us,,,,
Horizontal Scale,500,,,,
Model Number,T3DSO1104 ,,,,
Serial Number,T0101C18470265,,,,
Software Version,8.1.6.1.26,,,,
Source,CH1,CH2,,,
Second,Volt,Volt,,voltage,wavelength
0,0.309,0.55,80.55,80.55,-0.196675533
0.000001,0.317,0.55,80.55,80.55,-0.196675533
0.000002,0.311,0.55,80.55,80.55,-0.196675533
0.000003,0.309,0.55,80.55,80.55,-0.196675533
0.000004,0.311,0.55,80.55,80.55,-0.196675533
0.000005,0.313,0.53,80.53,80.53,-0.196615986
0.000006,0.313,0.55,80.55,80.55,-0.196675533
0.000007,0.313,0.55,80.55,80.55,-0.196675533
0.000008,0.309,0.55,80.55,80.55,-0.196675533
0.000009,0.309,0.55,80.55,80.55,-0.196675533
0.00001,0.311,0.55,80.55,80.55,-0.196675533
0.000011,0.313,0.53,80.53,80.53,-0.196615986
0.000012,0.315,0.53,80.53,80.53,-0.196615986
0.000013,0.309,0.55,80.55,80.55,-0.196675533
0.000014,0.309,0.55,80.55,80.55,-0.196675533
0.000015,0.315,0.55,80.55,80.55,-0.196675533
0.000016,0.311,0.55,80.55,80.55,-0.196675533
0.000017,0.309,0.55,80.55,80.55,-0.196675533
0.000018,0.309,0.55,80.55,80.55,-0.196675533
0.000019,0.309,0.55,80.55,80.55,-0.196675533
0.00002,0.311,0.55,80.55,80.55,-0.196675533
0.000021,0.311,0.55,80.55,80.55,-0.196675533
0.000022,0.311,0.55,80.55,80.55,-0.196675533
0.000023,0.309,0.55,80.55,80.55,-0.196675533
0.000024,0.311,0.55,80.55,80.55,-0.196675533
0.000025,0.309,0.55,80.55,80.55,-0.196675533
0.000026,0.311,0.55,80.55,80.55,-0.196675533
0.000027,0.313,0.55,80.55,80.55,-0.196675533
0.000028,0.309,0.55,80.55,80.55,-0.196675533
0.000029,0.311,0.55,80.55,80.55,-0.196675533
0.00003,0.313,0.55,80.55,80.55,-0.196675533
0.000031,0.309,0.55,80.55,80.55,-0.196675533
0.000032,0.315,0.55,80.55,80.55,-0.196675533
0.000033,0.313,0.55,80.55,80.55,-0.196675533
0.000034,0.311,0.55,80.55,80.55,-0.196675533
0.000035,0.309,0.55,80.55,80.55,-0.196675533
0.000036,0.309,0.53,80.53,80.53,-0.196615986
0.000037,0.313,0.55,80.55,80.55,-0.196675533
0.000038,0.315,0.57,80.57,80.57,-0.19673508
0.000039,0.313,0.57,80.57,80.57,-0.19673508
0.00004,0.313,0.57,80.57,80.57,-0.19673508
0.000041,0.307,0.57,80.57,80.57,-0.19673508
0.000042,0.311,0.57,80.57,80.57,-0.19673508
0.000043,0.309,0.57,80.57,80.57,-0.19673508
0.000044,0.311,0.57,80.57,80.57,-0.19673508
0.000045,0.309,0.57,80.57,80.57,-0.19673508
0.000046,0.311,0.57,80.57,80.57,-0.19673508
0.000047,0.311,0.57,80.57,80.57,-0.19673508
0.000048,0.311,0.57,80.57,80.57,-0.19673508
0.000049,0.309,0.57,80.57,80.57,-0.19673508
0.00005,0.313,0.57,80.57,80.57,-0.19673508
0.000051,0.311,0.57,80.57,80.57,-0.19673508
0.000052,0.313,0.57,80.57,80.57,-0.19673508
0.000053,0.311,0.57,80.57,80.57,-0.19673508
0.000054,0.309,0.57,80.57,80.57,-0.19673508
0.000055,0.311,0.57,80.57,80.57,-0.19673508
0.000056,0.307,0.57,80.57,80.57,-0.19673508
0.000057,0.309,0.57,80.57,80.57,-0.19673508
0.000058,0.309,0.55,80.55,80.55,-0.196675533
0.000059,0.313,0.57,80.57,80.57,-0.19673508
0.00006,0.313,0.57,80.57,80.57,-0.19673508
0.000061,0.311,0.57,80.57,80.57,-0.19673508
0.000062,0.309,0.57,80.57,80.57,-0.19673508
0.000063,0.311,0.57,80.57,80.57,-0.19673508
0.000064,0.315,0.57,80.57,80.57,-0.19673508
0.000065,0.309,0.57,80.57,80.57,-0.19673508
0.000066,0.311,0.57,80.57,80.57,-0.19673508
0.000067,0.311,0.57,80.57,80.57,-0.19673508
0.000068,0.309,0.57,80.57,80.57,-0.19673508
0.000069,0.311,0.55,80.55,80.55,-0.196675533
0.00007,0.311,0.57,80.57,80.57,-0.19673508
0.000071,0.311,0.57,80.57,80.57,-0.19673508
0.000072,0.309,0.57,80.57,80.57,-0.19673508
0.000073,0.313,0.55,80.55,80.55,-0.196675533
0.000074,0.309,0.57,80.57,80.57,-0.19673508
0.000075,0.313,0.57,80.57,80.57,-0.19673508
0.000076,0.313,0.55,80.55,80.55,-0.196675533
0.000077,0.313,0.57,80.57,80.57,-0.19673508
0.000078,0.311,0.57,80.57,80.57,-0.19673508
0.000079,0.311,0.57,80.57,80.57,-0.19673508
0.00008,0.309,0.57,80.57,80.57,-0.19673508
0.000081,0.313,0.57,80.57,80.57,-0.19673508
0.000082,0.311,0.57,80.57,80.57,-0.19673508
0.000083,0.313,0.57,80.57,80.57,-0.19673508
0.000084,0.307,0.57,80.57,80.57,-0.19673508
0.000085,0.313,0.57,80.57,80.57,-0.19673508
0.000086,0.309,0.57,80.57,80.57,-0.19673508
0.000087,0.311,0.57,80.57,80.57,-0.19673508
0.000088,0.311,0.57,80.57,80.57,-0.19673508
0.000089,0.307,0.57,80.57,80.57,-0.19673508
0.00009,0.311,0.59,80.59,80.59,-0.196794626
0.000091,0.311,0.57,80.57,80.57,-0.19673508
0.000092,0.311,0.57,80.57,80.57,-0.19673508
0.000093,0.311,0.59,80.59,80.59,-0.196794626
0.000094,0.315,0.59,80.59,80.59,-0.196794626
0.000095,0.309,0.59,80.59,80.59,-0.196794626
0.000096,0.313,0.59,80.59,80.59,-0.196794626
0.000097,0.311,0.59,80.59,80.59,-0.196794626
0.000098,0.313,0.57,80.57,80.57,-0.19673508
0.000099,0.309,0.57,80.57,80.57,-0.19673508
0.0001,0.311,0.59,80.59,80.59,-0.196794626
0.000101,0.311,0.57,80.57,80.57,-0.19673508
0.000102,0.313,0.59,80.59,80.59,-0.196794626
0.000103,0.313,0.59,80.59,80.59,-0.196794626
0.000104,0.309,0.59,80.59,80.59,-0.196794626
0.000105,0.313,0.59,80.59,80.59,-0.196794626
0.000106,0.311,0.59,80.59,80.59,-0.196794626
0.000107,0.311,0.59,80.59,80.59,-0.196794626
0.000108,0.311,0.59,80.59,80.59,-0.196794626
0.000109,0.313,0.59,80.59,80.59,-0.196794626
0.00011,0.313,0.59,80.59,80.59,-0.196794626
0.000111,0.309,0.59,80.59,80.59,-0.196794626
0.000112,0.307,0.59,80.59,80.59,-0.196794626
0.000113,0.313,0.59,80.59,80.59,-0.196794626
0.000114,0.307,0.59,80.59,80.59,-0.196794626
0.000115,0.309,0.57,80.57,80.57,-0.19673508
0.000116,0.311,0.59,80.59,80.59,-0.196794626
0.000117,0.311,0.59,80.59,80.59,-0.196794626
0.000118,0.309,0.59,80.59,80.59,-0.196794626
0.000119,0.309,0.57,80.57,80.57,-0.19673508
0.00012,0.311,0.59,80.59,80.59,-0.196794626
0.000121,0.309,0.59,80.59,80.59,-0.196794626
0.000122,0.307,0.59,80.59,80.59,-0.196794626
0.000123,0.311,0.59,80.59,80.59,-0.196794626
0.000124,0.315,0.59,80.59,80.59,-0.196794626
0.000125,0.309,0.59,80.59,80.59,-0.196794626
0.000126,0.311,0.59,80.59,80.59,-0.196794626
0.000127,0.309,0.57,80.57,80.57,-0.19673508
0.000128,0.311,0.59,80.59,80.59,-0.196794626
0.000129,0.313,0.59,80.59,80.59,-0.196794626
0.00013,0.315,0.59,80.59,80.59,-0.196794626
0.000131,0.311,0.57,80.57,80.57,-0.19673508
0.000132,0.313,0.57,80.57,80.57,-0.19673508
0.000133,0.307,0.59,80.59,80.59,-0.196794626
0.000134,0.313,0.57,80.57,80.57,-0.19673508
0.000135,0.311,0.59,80.59,80.59,-0.196794626
0.000136,0.309,0.57,80.57,80.57,-0.19673508
0.000137,0.311,0.59,80.59,80.59,-0.196794626
0.000138,0.311,0.59,80.59,80.59,-0.196794626
0.000139,0.309,0.59,80.59,80.59,-0.196794626
0.00014,0.311,0.59,80.59,80.59,-0.196794626
0.000141,0.311,0.59,80.59,80.59,-0.196794626
0.000142,0.315,0.59,80.59,80.59,-0.196794626
0.000143,0.309,0.61,80.61,80.61,-0.196854173
0.000144,0.309,0.61,80.61,80.61,-0.196854173
0.000145,0.309,0.61,80.61,80.61,-0.196854173
0.000146,0.311,0.59,80.59,80.59,-0.196794626
0.000147,0.309,0.59,80.59,80.59,-0.196794626
0.000148,0.311,0.61,80.61,80.61,-0.196854173
0.000149,0.309,0.59,80.59,80.59,-0.196794626
0.00015,0.313,0.61,80.61,80.61,-0.196854173
0.000151,0.311,0.61,80.61,80.61,-0.196854173
0.000152,0.311,0.59,80.59,80.59,-0.196794626
0.000153,0.309,0.61,80.61,80.61,-0.196854173
0.000154,0.311,0.59,80.59,80.59,-0.196794626
0.000155,0.313,0.61,80.61,80.61,-0.196854173
0.000156,0.313,0.61,80.61,80.61,-0.196854173
0.000157,0.311,0.61,80.61,80.61,-0.196854173
0.000158,0.311,0.61,80.61,80.61,-0.196854173
0.000159,0.311,0.59,80.59,80.59,-0.196794626
0.00016,0.311,0.59,80.59,80.59,-0.196794626
0.000161,0.311,0.61,80.61,80.61,-0.196854173
0.000162,0.313,0.61,80.61,80.61,-0.196854173
0.000163,0.309,0.61,80.61,80.61,-0.196854173
0.000164,0.307,0.59,80.59,80.59,-0.196794626
0.000165,0.311,0.61,80.61,80.61,-0.196854173
0.000166,0.313,0.59,80.59,80.59,-0.196794626
0.000167,0.313,0.61,80.61,80.61,-0.196854173
0.000168,0.309,0.61,80.61,80.61,-0.196854173
0.000169,0.311,0.61,80.61,80.61,-0.196854173
0.00017,0.309,0.61,80.61,80.61,-0.196854173
0.000171,0.311,0.61,80.61,80.61,-0.196854173
0.000172,0.311,0.61,80.61,80.61,-0.196854173
0.000173,0.309,0.59,80.59,80.59,-0.196794626
0.000174,0.313,0.59,80.59,80.59,-0.196794626
0.000175,0.311,0.61,80.61,80.61,-0.196854173
0.000176,0.309,0.61,80.61,80.61,-0.196854173
0.000177,0.313,0.61,80.61,80.61,-0.196854173
0.000178,0.309,0.61,80.61,80.61,-0.196854173
0.000179,0.313,0.61,80.61,80.61,-0.196854173
0.00018,0.307,0.61,80.61,80.61,-0.196854173
0.000181,0.311,0.61,80.61,80.61,-0.196854173
0.000182,0.309,0.59,80.59,80.59,-0.196794626
0.000183,0.311,0.61,80.61,80.61,-0.196854173
0.000184,0.311,0.59,80.59,80.59,-0.196794626
0.000185,0.305,0.59,80.59,80.59,-0.196794626
0.000186,0.309,0.61,80.61,80.61,-0.196854173
0.000187,0.313,0.59,80.59,80.59,-0.196794626
0.000188,0.311,0.61,80.61,80.61,-0.196854173
0.000189,0.307,0.61,80.61,80.61,-0.196854173
0.00019,0.313,0.63,80.63,80.63,-0.19691372
0.000191,0.313,0.61,80.61,80.61,-0.196854173
0.000192,0.313,0.59,80.59,80.59,-0.196794626
0.000193,0.309,0.61,80.61,80.61,-0.196854173
0.000194,0.309,0.61,80.61,80.61,-0.196854173
0.000195,0.311,0.59,80.59,80.59,-0.196794626
0.000196,0.311,0.63,80.63,80.63,-0.19691372
0.000197,0.311,0.63,80.63,80.63,-0.19691372
0.000198,0.313,0.63,80.63,80.63,-0.19691372
0.000199,0.313,0.63,80.63,80.63,-0.19691372
0.0002,0.311,0.63,80.63,80.63,-0.19691372
0.000201,0.309,0.63,80.63,80.63,-0.19691372
0.000202,0.309,0.63,80.63,80.63,-0.19691372
0.000203,0.311,0.63,80.63,80.63,-0.19691372
0.000204,0.311,0.63,80.63,80.63,-0.19691372
0.000205,0.309,0.63,80.63,80.63,-0.19691372
0.000206,0.313,0.63,80.63,80.63,-0.19691372
0.000207,0.307,0.63,80.63,80.63,-0.19691372
0.000208,0.309,0.61,80.61,80.61,-0.196854173
0.000209,0.309,0.63,80.63,80.63,-0.19691372
0.00021,0.311,0.63,80.63,80.63,-0.19691372
0.000211,0.313,0.63,80.63,80.63,-0.19691372
0.000212,0.309,0.63,80.63,80.63,-0.19691372
0.000213,0.313,0.63,80.63,80.63,-0.19691372
0.000214,0.313,0.63,80.63,80.63,-0.19691372
0.000215,0.309,0.63,80.63,80.63,-0.19691372
0.000216,0.309,0.63,80.63,80.63,-0.19691372
0.000217,0.309,0.63,80.63,80.63,-0.19691372
0.000218,0.309,0.61,80.61,80.61,-0.196854173
0.000219,0.311,0.63,80.63,80.63,-0.19691372
0.00022,0.313,0.61,80.61,80.61,-0.196854173
0.000221,0.309,0.63,80.63,80.63,-0.19691372
0.000222,0.309,0.61,80.61,80.61,-0.196854173
0.000223,0.311,0.63,80.63,80.63,-0.19691372
0.000224,0.309,0.63,80.63,80.63,-0.19691372
0.000225,0.309,0.63,80.63,80.63,-0.19691372
0.000226,0.307,0.61,80.61,80.61,-0.196854173
0.000227,0.309,0.63,80.63,80.63,-0.19691372
0.000228,0.311,0.63,80.63,80.63,-0.19691372
0.000229,0.313,0.63,80.63,80.63,-0.19691372
0.00023,0.309,0.63,80.63,80.63,-0.19691372
0.000231,0.311,0.63,80.63,80.63,-0.19691372
0.000232,0.309,0.61,80.61,80.61,-0.196854173
0.000233,0.309,0.63,80.63,80.63,-0.19691372
0.000234,0.309,0.63,80.63,80.63,-0.19691372
0.000235,0.309,0.61,80.61,80.61,-0.196854173
0.000236,0.313,0.61,80.61,80.61,-0.196854173
0.000237,0.311,0.63,80.63,80.63,-0.19691372
0.000238,0.311,0.63,80.63,80.63,-0.19691372
0.000239,0.311,0.63,80.63,80.63,-0.19691372
0.00024,0.313,0.65,80.65,80.65,-0.196973266
0.000241,0.311,0.63,80.63,80.63,-0.19691372
0.000242,0.309,0.63,80.63,80.63,-0.19691372
0.000243,0.311,0.65,80.65,80.65,-0.196973266
0.000244,0.313,0.65,80.65,80.65,-0.196973266
0.000245,0.313,0.65,80.65,80.65,-0.196973266
0.000246,0.311,0.65,80.65,80.65,-0.196973266
0.000247,0.311,0.65,80.65,80.65,-0.196973266
0.000248,0.311,0.63,80.63,80.63,-0.19691372
0.000249,0.309,0.63,80.63,80.63,-0.19691372
0.00025,0.311,0.63,80.63,80.63,-0.19691372
0.000251,0.309,0.65,80.65,80.65,-0.196973266
0.000252,0.309,0.65,80.65,80.65,-0.196973266
0.000253,0.311,0.65,80.65,80.65,-0.196973266
0.000254,0.309,0.65,80.65,80.65,-0.196973266
0.000255,0.311,0.65,80.65,80.65,-0.196973266
0.000256,0.311,0.65,80.65,80.65,-0.196973266
0.000257,0.313,0.65,80.65,80.65,-0.196973266
0.000258,0.309,0.65,80.65,80.65,-0.196973266
0.000259,0.311,0.65,80.65,80.65,-0.196973266
0.00026,0.309,0.65,80.65,80.65,-0.196973266
0.000261,0.309,0.65,80.65,80.65,-0.196973266
0.000262,0.311,0.63,80.63,80.63,-0.19691372
0.000263,0.313,0.63,80.63,80.63,-0.19691372
0.000264,0.311,0.65,80.65,80.65,-0.196973266
0.000265,0.311,0.63,80.63,80.63,-0.19691372
0.000266,0.311,0.65,80.65,80.65,-0.196973266
0.000267,0.311,0.65,80.65,80.65,-0.196973266
0.000268,0.307,0.65,80.65,80.65,-0.196973266
0.000269,0.311,0.65,80.65,80.65,-0.196973266
0.00027,0.311,0.65,80.65,80.65,-0.196973266
0.000271,0.309,0.65,80.65,80.65,-0.196973266
0.000272,0.309,0.63,80.63,80.63,-0.19691372
0.000273,0.311,0.65,80.65,80.65,-0.196973266
0.000274,0.313,0.65,80.65,80.65,-0.196973266
0.000275,0.309,0.65,80.65,80.65,-0.196973266
0.000276,0.313,0.63,80.63,80.63,-0.19691372
0.000277,0.309,0.63,80.63,80.63,-0.19691372
0.000278,0.307,0.65,80.65,80.65,-0.196973266
0.000279,0.311,0.65,80.65,80.65,-0.196973266
0.00028,0.311,0.65,80.65,80.65,-0.196973266
0.000281,0.313,0.63,80.63,80.63,-0.19691372
0.000282,0.309,0.65,80.65,80.65,-0.196973266
0.000283,0.309,0.65,80.65,80.65,-0.196973266
0.000284,0.307,0.65,80.65,80.65,-0.196973266
0.000285,0.309,0.65,80.65,80.65,-0.196973266
0.000286,0.311,0.65,80.65,80.65,-0.196973266
0.000287,0.307,0.67,80.67,80.67,-0.197032813
0.000288,0.311,0.67,80.67,80.67,-0.197032813
0.000289,0.309,0.65,80.65,80.65,-0.196973266
0.00029,0.311,0.65,80.65,80.65,-0.196973266
0.000291,0.313,0.65,80.65,80.65,-0.196973266
0.000292,0.315,0.67,80.67,80.67,-0.197032813
0.000293,0.309,0.65,80.65,80.65,-0.196973266
0.000294,0.313,0.67,80.67,80.67,-0.197032813
0.000295,0.309,0.67,80.67,80.67,-0.197032813
0.000296,0.311,0.67,80.67,80.67,-0.197032813
0.000297,0.309,0.67,80.67,80.67,-0.197032813
0.000298,0.311,0.67,80.67,80.67,-0.197032813
0.000299,0.309,0.67,80.67,80.67,-0.197032813
0.0003,0.309,0.67,80.67,80.67,-0.197032813
0.000301,0.307,0.67,80.67,80.67,-0.197032813
0.000302,0.311,0.67,80.67,80.67,-0.197032813
0.000303,0.307,0.67,80.67,80.67,-0.197032813
0.000304,0.307,0.65,80.65,80.65,-0.196973266
0.000305,0.309,0.67,80.67,80.67,-0.197032813
0.000306,0.311,0.67,80.67,80.67,-0.197032813
0.000307,0.311,0.65,80.65,80.65,-0.196973266
0.000308,0.305,0.65,80.65,80.65,-0.196973266
0.000309,0.311,0.67,80.67,80.67,-0.197032813
0.00031,0.309,0.65,80.65,80.65,-0.196973266
0.000311,0.313,0.67,80.67,80.67,-0.197032813
0.000312,0.311,0.67,80.67,80.67,-0.197032813
0.000313,0.305,0.65,80.65,80.65,-0.196973266
0.000314,0.313,0.67,80.67,80.67,-0.197032813
0.000315,0.311,0.67,80.67,80.67,-0.197032813
0.000316,0.309,0.65,80.65,80.65,-0.196973266
0.000317,0.309,0.67,80.67,80.67,-0.197032813
0.000318,0.309,0.67,80.67,80.67,-0.197032813
0.000319,0.311,0.67,80.67,80.67,-0.197032813
0.00032,0.307,0.65,80.65,80.65,-0.196973266
0.000321,0.307,0.65,80.65,80.65,-0.196973266
0.000322,0.315,0.65,80.65,80.65,-0.196973266
0.000323,0.307,0.65,80.65,80.65,-0.196973266
0.000324,0.311,0.67,80.67,80.67,-0.197032813
0.000325,0.311,0.65,80.65,80.65,-0.196973266
0.000326,0.311,0.67,80.67,80.67,-0.197032813
0.000327,0.309,0.67,80.67,80.67,-0.197032813
0.000328,0.313,0.67,80.67,80.67,-0.197032813
0.000329,0.307,0.67,80.67,80.67,-0.197032813
0.00033,0.307,0.65,80.65,80.65,-0.196973266
0.000331,0.311,0.65,80.65,80.65,-0.196973266
0.000332,0.311,0.67,80.67,80.67,-0.197032813
0.000333,0.311,0.67,80.67,80.67,-0.197032813
0.000334,0.313,0.67,80.67,80.67,-0.197032813
0.000335,0.311,0.67,80.67,80.67,-0.197032813
0.000336,0.311,0.67,80.67,80.67,-0.197032813
0.000337,0.307,0.69,80.69,80.69,-0.19709236
0.000338,0.311,0.67,80.67,80.67,-0.197032813
0.000339,0.307,0.67,80.67,80.67,-0.197032813
0.00034,0.309,0.67,80.67,80.67,-0.197032813
0.000341,0.311,0.69,80.69,80.69,-0.19709236
0.000342,0.311,0.69,80.69,80.69,-0.19709236
0.000343,0.311,0.69,80.69,80.69,-0.19709236
0.000344,0.311,0.69,80.69,80.69,-0.19709236
0.000345,0.311,0.67,80.67,80.67,-0.197032813
0.000346,0.309,0.69,80.69,80.69,-0.19709236
0.000347,0.307,0.67,80.67,80.67,-0.197032813
0.000348,0.309,0.69,80.69,80.69,-0.19709236
0.000349,0.309,0.69,80.69,80.69,-0.19709236
0.00035,0.311,0.67,80.67,80.67,-0.197032813
0.000351,0.311,0.69,80.69,80.69,-0.19709236
0.000352,0.311,0.67,80.67,80.67,-0.197032813
0.000353,0.311,0.67,80.67,80.67,-0.197032813
0.000354,0.309,0.69,80.69,80.69,-0.19709236
0.000355,0.309,0.69,80.69,80.69,-0.19709236
0.000356,0.311,0.69,80.69,80.69,-0.19709236
0.000357,0.309,0.69,80.69,80.69,-0.19709236
0.000358,0.311,0.67,80.67,80.67,-0.197032813
0.000359,0.309,0.69,80.69,80.69,-0.19709236
0.00036,0.309,0.67,80.67,80.67,-0.197032813
0.000361,0.307,0.67,80.67,80.67,-0.197032813
0.000362,0.307,0.69,80.69,80.69,-0.19709236
0.000363,0.309,0.67,80.67,80.67,-0.197032813
0.000364,0.311,0.69,80.69,80.69,-0.19709236
0.000365,0.309,0.67,80.67,80.67,-0.197032813
0.000366,0.309,0.69,80.69,80.69,-0.19709236
0.000367,0.307,0.69,80.69,80.69,-0.19709236
0.000368,0.307,0.69,80.69,80.69,-0.19709236
0.000369,0.311,0.69,80.69,80.69,-0.19709236
0.00037,0.309,0.69,80.69,80.69,-0.19709236
0.000371,0.311,0.67,80.67,80.67,-0.197032813
0.000372,0.309,0.67,80.67,80.67,-0.197032813
0.000373,0.313,0.69,80.69,80.69,-0.19709236
0.000374,0.309,0.69,80.69,80.69,-0.19709236
0.000375,0.309,0.69,80.69,80.69,-0.19709236
0.000376,0.309,0.69,80.69,80.69,-0.19709236
0.000377,0.307,0.67,80.67,80.67,-0.197032813
0.000378,0.313,0.69,80.69,80.69,-0.19709236
0.000379,0.311,0.69,80.69,80.69,-0.19709236
0.00038,0.311,0.67,80.67,80.67,-0.197032813
0.000381,0.313,0.69,80.69,80.69,-0.19709236
0.000382,0.307,0.67,80.67,80.67,-0.197032813
0.000383,0.309,0.69,80.69,80.69,-0.19709236
0.000384,0.313,0.69,80.69,80.69,-0.19709236
0.000385,0.307,0.69,80.69,80.69,-0.19709236
0.000386,0.311,0.69,80.69,80.69,-0.19709236
0.000387,0.307,0.69,80.69,80.69,-0.19709236
0.000388,0.311,0.69,80.69,80.69,-0.19709236
0.000389,0.309,0.69,80.69,80.69,-0.19709236
0.00039,0.307,0.69,80.69,80.69,-0.19709236
0.000391,0.307,0.71,80.71,80.71,-0.197151906
0.000392,0.307,0.71,80.71,80.71,-0.197151906
0.000393,0.313,0.71,80.71,80.71,-0.197151906
0.000394,0.311,0.71,80.71,80.71,-0.197151906
0.000395,0.309,0.69,80.69,80.69,-0.19709236
0.000396,0.307,0.71,80.71,80.71,-0.197151906
0.000397,0.309,0.69,80.69,80.69,-0.19709236
0.000398,0.313,0.71,80.71,80.71,-0.197151906
0.000399,0.309,0.71,80.71,80.71,-0.197151906
0.0004,0.311,0.71,80.71,80.71,-0.197151906
0.000401,0.307,0.71,80.71,80.71,-0.197151906
0.000402,0.309,0.71,80.71,80.71,-0.197151906
0.000403,0.311,0.69,80.69,80.69,-0.19709236
0.000404,0.309,0.69,80.69,80.69,-0.19709236
0.000405,0.309,0.69,80.69,80.69,-0.19709236
0.000406,0.313,0.69,80.69,80.69,-0.19709236
0.000407,0.309,0.71,80.71,80.71,-0.197151906
0.000408,0.307,0.71,80.71,80.71,-0.197151906
0.000409,0.311,0.71,80.71,80.71,-0.197151906
0.00041,0.311,0.71,80.71,80.71,-0.197151906
0.000411,0.309,0.69,80.69,80.69,-0.19709236
0.000412,0.309,0.71,80.71,80.71,-0.197151906
0.000413,0.313,0.71,80.71,80.71,-0.197151906
0.000414,0.309,0.69,80.69,80.69,-0.19709236
0.000415,0.307,0.69,80.69,80.69,-0.19709236
0.000416,0.307,0.69,80.69,80.69,-0.19709236
0.000417,0.309,0.71,80.71,80.71,-0.197151906
0.000418,0.311,0.71,80.71,80.71,-0.197151906
0.000419,0.307,0.71,80.71,80.71,-0.197151906
0.00042,0.309,0.69,80.69,80.69,-0.19709236
0.000421,0.307,0.69,80.69,80.69,-0.19709236
0.000422,0.311,0.69,80.69,80.69,-0.19709236
0.000423,0.311,0.69,80.69,80.69,-0.19709236
0.000424,0.309,0.71,80.71,80.71,-0.197151906
0.000425,0.311,0.71,80.71,80.71,-0.197151906
0.000426,0.307,0.71,80.71,80.71,-0.197151906
0.000427,0.307,0.71,80.71,80.71,-0.197151906
0.000428,0.307,0.69,80.69,80.69,-0.19709236
0.000429,0.309,0.69,80.69,80.69,-0.19709236
0.00043,0.307,0.71,80.71,80.71,-0.197151906
0.000431,0.311,0.69,80.69,80.69,-0.19709236
0.000432,0.307,0.71,80.71,80.71,-0.197151906
0.000433,0.309,0.71,80.71,80.71,-0.197151906
0.000434,0.305,0.71,80.71,80.71,-0.197151906
0.000435,0.309,0.71,80.71,80.71,-0.197151906
0.000436,0.311,0.71,80.71,80.71,-0.197151906
0.000437,0.309,0.71,80.71,80.71,-0.197151906
0.000438,0.311,0.71,80.71,80.71,-0.197151906
0.000439,0.309,0.71,80.71,80.71,-0.197151906
