Voltage2Wavelength/data/实验数据/03号taper不同耦合方式4.28/贴住1vv.csv

Record Length,Analog:7000,,,
Sample Interval,CH1:0.0000010000000 CH2:0.0000010000000,,,
Vertical Units,CH1:V CH2:V,,,
Vertical Scale,CH1:0.05 CH2:1.00,,,
Vertical Offset,CH1:-0.17800 CH2:-0.26000,,,
Horizontal Units,us,,,
Horizontal Scale,500,,,
Model Number,T3DSO1104 ,,,
Serial Number,T0101C18470265,,,
Software Version,8.1.6.1.26,,,
Source,CH1,CH2,,
Second,Volt,Volt,voltage,wavelength
0,0.312,0.74,79.77,-0.19442988
0.000001,0.314,0.74,79.77,-0.19442988
0.000002,0.31,0.78,79.81,-0.19453564
0.000003,0.312,0.82,79.85,-0.1946414
0.000004,0.314,0.78,79.81,-0.19453564
0.000005,0.312,0.78,79.81,-0.19453564
0.000006,0.314,0.78,79.81,-0.19453564
0.000007,0.31,0.78,79.81,-0.19453564
0.000008,0.314,0.78,79.81,-0.19453564
0.000009,0.314,0.82,79.85,-0.1946414
0.00001,0.312,0.78,79.81,-0.19453564
0.000011,0.312,0.78,79.81,-0.19453564
0.000012,0.314,0.82,79.85,-0.1946414
0.000013,0.31,0.78,79.81,-0.19453564
0.000014,0.312,0.78,79.81,-0.19453564
0.000015,0.312,0.78,79.81,-0.19453564
0.000016,0.314,0.78,79.81,-0.19453564
0.000017,0.31,0.78,79.81,-0.19453564
0.000018,0.31,0.78,79.81,-0.19453564
0.000019,0.312,0.78,79.81,-0.19453564
0.00002,0.31,0.78,79.81,-0.19453564
0.000021,0.316,0.78,79.81,-0.19453564
0.000022,0.312,0.78,79.81,-0.19453564
0.000023,0.314,0.82,79.85,-0.1946414
0.000024,0.312,0.78,79.81,-0.19453564
0.000025,0.316,0.78,79.81,-0.19453564
0.000026,0.312,0.78,79.81,-0.19453564
0.000027,0.312,0.78,79.81,-0.19453564
0.000028,0.318,0.78,79.81,-0.19453564
0.000029,0.314,0.78,79.81,-0.19453564
0.00003,0.312,0.78,79.81,-0.19453564
0.000031,0.316,0.78,79.81,-0.19453564
0.000032,0.316,0.78,79.81,-0.19453564
0.000033,0.312,0.78,79.81,-0.19453564
0.000034,0.316,0.78,79.81,-0.19453564
0.000035,0.31,0.78,79.81,-0.19453564
0.000036,0.314,0.78,79.81,-0.19453564
0.000037,0.314,0.78,79.81,-0.19453564
0.000038,0.31,0.78,79.81,-0.19453564
0.000039,0.314,0.78,79.81,-0.19453564
0.00004,0.314,0.78,79.81,-0.19453564
0.000041,0.314,0.78,79.81,-0.19453564
0.000042,0.31,0.78,79.81,-0.19453564
0.000043,0.312,0.78,79.81,-0.19453564
0.000044,0.316,0.78,79.81,-0.19453564
0.000045,0.312,0.78,79.81,-0.19453564
0.000046,0.312,0.78,79.81,-0.19453564
0.000047,0.314,0.78,79.81,-0.19453564
0.000048,0.312,0.78,79.81,-0.19453564
0.000049,0.31,0.78,79.81,-0.19453564
0.00005,0.312,0.78,79.81,-0.19453564
0.000051,0.312,0.78,79.81,-0.19453564
0.000052,0.316,0.78,79.81,-0.19453564
0.000053,0.31,0.78,79.81,-0.19453564
0.000054,0.31,0.78,79.81,-0.19453564
0.000055,0.314,0.78,79.81,-0.19453564
0.000056,0.314,0.78,79.81,-0.19453564
0.000057,0.314,0.78,79.81,-0.19453564
0.000058,0.314,0.78,79.81,-0.19453564
0.000059,0.312,0.78,79.81,-0.19453564
0.00006,0.314,0.78,79.81,-0.19453564
0.000061,0.312,0.78,79.81,-0.19453564
0.000062,0.312,0.82,79.85,-0.1946414
0.000063,0.316,0.78,79.81,-0.19453564
0.000064,0.314,0.82,79.85,-0.1946414
0.000065,0.312,0.82,79.85,-0.1946414
0.000066,0.316,0.82,79.85,-0.1946414
0.000067,0.31,0.82,79.85,-0.1946414
0.000068,0.314,0.78,79.81,-0.19453564
0.000069,0.31,0.78,79.81,-0.19453564
0.00007,0.31,0.78,79.81,-0.19453564
0.000071,0.314,0.78,79.81,-0.19453564
0.000072,0.318,0.78,79.81,-0.19453564
0.000073,0.316,0.78,79.81,-0.19453564
0.000074,0.314,0.78,79.81,-0.19453564
0.000075,0.314,0.78,79.81,-0.19453564
0.000076,0.314,0.78,79.81,-0.19453564
0.000077,0.312,0.78,79.81,-0.19453564
0.000078,0.314,0.78,79.81,-0.19453564
0.000079,0.312,0.78,79.81,-0.19453564
0.00008,0.312,0.78,79.81,-0.19453564
0.000081,0.314,0.78,79.81,-0.19453564
0.000082,0.314,0.78,79.81,-0.19453564
0.000083,0.316,0.82,79.85,-0.1946414
0.000084,0.312,0.78,79.81,-0.19453564
0.000085,0.314,0.78,79.81,-0.19453564
0.000086,0.318,0.78,79.81,-0.19453564
0.000087,0.314,0.78,79.81,-0.19453564
0.000088,0.312,0.82,79.85,-0.1946414
0.000089,0.312,0.78,79.81,-0.19453564
0.00009,0.312,0.78,79.81,-0.19453564
0.000091,0.312,0.78,79.81,-0.19453564
0.000092,0.314,0.78,79.81,-0.19453564
0.000093,0.312,0.78,79.81,-0.19453564
0.000094,0.314,0.78,79.81,-0.19453564
0.000095,0.314,0.78,79.81,-0.19453564
0.000096,0.316,0.78,79.81,-0.19453564
0.000097,0.312,0.78,79.81,-0.19453564
0.000098,0.31,0.82,79.85,-0.1946414
0.000099,0.312,0.78,79.81,-0.19453564
0.0001,0.314,0.78,79.81,-0.19453564
0.000101,0.316,0.78,79.81,-0.19453564
0.000102,0.312,0.82,79.85,-0.1946414
0.000103,0.314,0.82,79.85,-0.1946414
0.000104,0.314,0.82,79.85,-0.1946414
0.000105,0.314,0.82,79.85,-0.1946414
0.000106,0.314,0.78,79.81,-0.19453564
0.000107,0.316,0.82,79.85,-0.1946414
0.000108,0.316,0.86,79.89,-0.19474716
0.000109,0.312,0.82,79.85,-0.1946414
0.00011,0.316,0.82,79.85,-0.1946414
0.000111,0.314,0.82,79.85,-0.1946414
0.000112,0.314,0.82,79.85,-0.1946414
0.000113,0.312,0.82,79.85,-0.1946414
0.000114,0.316,0.82,79.85,-0.1946414
0.000115,0.316,0.82,79.85,-0.1946414
0.000116,0.314,0.82,79.85,-0.1946414
0.000117,0.314,0.86,79.89,-0.19474716
0.000118,0.312,0.82,79.85,-0.1946414
0.000119,0.316,0.86,79.89,-0.19474716
0.00012,0.312,0.82,79.85,-0.1946414
0.000121,0.316,0.82,79.85,-0.1946414
0.000122,0.318,0.82,79.85,-0.1946414
0.000123,0.314,0.82,79.85,-0.1946414
0.000124,0.314,0.82,79.85,-0.1946414
0.000125,0.318,0.82,79.85,-0.1946414
0.000126,0.314,0.82,79.85,-0.1946414
0.000127,0.314,0.82,79.85,-0.1946414
0.000128,0.316,0.82,79.85,-0.1946414
0.000129,0.314,0.82,79.85,-0.1946414
0.00013,0.316,0.82,79.85,-0.1946414
0.000131,0.316,0.82,79.85,-0.1946414
0.000132,0.314,0.82,79.85,-0.1946414
0.000133,0.314,0.82,79.85,-0.1946414
0.000134,0.318,0.82,79.85,-0.1946414
0.000135,0.314,0.86,79.89,-0.19474716
0.000136,0.312,0.86,79.89,-0.19474716
0.000137,0.314,0.82,79.85,-0.1946414
0.000138,0.316,0.82,79.85,-0.1946414
0.000139,0.314,0.82,79.85,-0.1946414
0.00014,0.314,0.82,79.85,-0.1946414
0.000141,0.314,0.82,79.85,-0.1946414
0.000142,0.316,0.82,79.85,-0.1946414
0.000143,0.314,0.82,79.85,-0.1946414
0.000144,0.314,0.82,79.85,-0.1946414
0.000145,0.314,0.82,79.85,-0.1946414
0.000146,0.312,0.82,79.85,-0.1946414
0.000147,0.316,0.82,79.85,-0.1946414
0.000148,0.314,0.82,79.85,-0.1946414
0.000149,0.314,0.82,79.85,-0.1946414
0.00015,0.314,0.82,79.85,-0.1946414
0.000151,0.314,0.82,79.85,-0.1946414
0.000152,0.31,0.82,79.85,-0.1946414
0.000153,0.314,0.86,79.89,-0.19474716
0.000154,0.316,0.86,79.89,-0.19474716
0.000155,0.314,0.82,79.85,-0.1946414
0.000156,0.314,0.82,79.85,-0.1946414
0.000157,0.314,0.82,79.85,-0.1946414
0.000158,0.316,0.86,79.89,-0.19474716
0.000159,0.316,0.82,79.85,-0.1946414
0.00016,0.316,0.82,79.85,-0.1946414
0.000161,0.314,0.82,79.85,-0.1946414
0.000162,0.314,0.82,79.85,-0.1946414
0.000163,0.314,0.82,79.85,-0.1946414
0.000164,0.312,0.82,79.85,-0.1946414
0.000165,0.314,0.82,79.85,-0.1946414
0.000166,0.314,0.82,79.85,-0.1946414
0.000167,0.316,0.82,79.85,-0.1946414
0.000168,0.314,0.82,79.85,-0.1946414
0.000169,0.312,0.82,79.85,-0.1946414
0.00017,0.312,0.82,79.85,-0.1946414
0.000171,0.316,0.82,79.85,-0.1946414
0.000172,0.314,0.82,79.85,-0.1946414
0.000173,0.312,0.82,79.85,-0.1946414
0.000174,0.316,0.82,79.85,-0.1946414
0.000175,0.312,0.82,79.85,-0.1946414
0.000176,0.316,0.82,79.85,-0.1946414
0.000177,0.314,0.82,79.85,-0.1946414
0.000178,0.312,0.82,79.85,-0.1946414
0.000179,0.314,0.82,79.85,-0.1946414
0.00018,0.314,0.82,79.85,-0.1946414
0.000181,0.314,0.86,79.89,-0.19474716
0.000182,0.314,0.82,79.85,-0.1946414
0.000183,0.314,0.86,79.89,-0.19474716
0.000184,0.316,0.82,79.85,-0.1946414
0.000185,0.316,0.82,79.85,-0.1946414
0.000186,0.312,0.82,79.85,-0.1946414
0.000187,0.314,0.82,79.85,-0.1946414
0.000188,0.316,0.82,79.85,-0.1946414
0.000189,0.32,0.86,79.89,-0.19474716
0.00019,0.316,0.82,79.85,-0.1946414
0.000191,0.312,0.82,79.85,-0.1946414
0.000192,0.314,0.82,79.85,-0.1946414
0.000193,0.316,0.82,79.85,-0.1946414
0.000194,0.316,0.82,79.85,-0.1946414
0.000195,0.316,0.82,79.85,-0.1946414
0.000196,0.314,0.82,79.85,-0.1946414
0.000197,0.316,0.82,79.85,-0.1946414
0.000198,0.314,0.82,79.85,-0.1946414
0.000199,0.316,0.82,79.85,-0.1946414
0.0002,0.316,0.82,79.85,-0.1946414
0.000201,0.316,0.82,79.85,-0.1946414
0.000202,0.314,0.86,79.89,-0.19474716
0.000203,0.314,0.86,79.89,-0.19474716
0.000204,0.316,0.82,79.85,-0.1946414
0.000205,0.318,0.82,79.85,-0.1946414
0.000206,0.314,0.86,79.89,-0.19474716
0.000207,0.314,0.82,79.85,-0.1946414
0.000208,0.318,0.86,79.89,-0.19474716
0.000209,0.316,0.86,79.89,-0.19474716
0.00021,0.314,0.86,79.89,-0.19474716
0.000211,0.316,0.86,79.89,-0.19474716
0.000212,0.316,0.86,79.89,-0.19474716
0.000213,0.316,0.86,79.89,-0.19474716
0.000214,0.312,0.86,79.89,-0.19474716
0.000215,0.316,0.86,79.89,-0.19474716
0.000216,0.314,0.86,79.89,-0.19474716
0.000217,0.318,0.86,79.89,-0.19474716
0.000218,0.312,0.86,79.89,-0.19474716
0.000219,0.316,0.86,79.89,-0.19474716
0.00022,0.32,0.86,79.89,-0.19474716
0.000221,0.318,0.86,79.89,-0.19474716
0.000222,0.316,0.86,79.89,-0.19474716
0.000223,0.314,0.86,79.89,-0.19474716
0.000224,0.314,0.86,79.89,-0.19474716
0.000225,0.32,0.86,79.89,-0.19474716
0.000226,0.312,0.86,79.89,-0.19474716
0.000227,0.318,0.86,79.89,-0.19474716
0.000228,0.32,0.86,79.89,-0.19474716
0.000229,0.32,0.86,79.89,-0.19474716
0.00023,0.314,0.86,79.89,-0.19474716
0.000231,0.316,0.86,79.89,-0.19474716
0.000232,0.316,0.86,79.89,-0.19474716
0.000233,0.316,0.9,79.93,-0.19485292
0.000234,0.312,0.86,79.89,-0.19474716
0.000235,0.314,0.86,79.89,-0.19474716
0.000236,0.318,0.86,79.89,-0.19474716
0.000237,0.318,0.86,79.89,-0.19474716
0.000238,0.318,0.86,79.89,-0.19474716
0.000239,0.316,0.86,79.89,-0.19474716
0.00024,0.316,0.9,79.93,-0.19485292
0.000241,0.316,0.86,79.89,-0.19474716
0.000242,0.318,0.86,79.89,-0.19474716
0.000243,0.318,0.86,79.89,-0.19474716
0.000244,0.314,0.86,79.89,-0.19474716
0.000245,0.314,0.86,79.89,-0.19474716
0.000246,0.318,0.86,79.89,-0.19474716
0.000247,0.318,0.86,79.89,-0.19474716
0.000248,0.316,0.86,79.89,-0.19474716
0.000249,0.32,0.86,79.89,-0.19474716
0.00025,0.318,0.86,79.89,-0.19474716
0.000251,0.314,0.9,79.93,-0.19485292
0.000252,0.316,0.9,79.93,-0.19485292
0.000253,0.322,0.86,79.89,-0.19474716
0.000254,0.314,0.86,79.89,-0.19474716
0.000255,0.316,0.86,79.89,-0.19474716
0.000256,0.316,0.86,79.89,-0.19474716
0.000257,0.314,0.86,79.89,-0.19474716
0.000258,0.316,0.86,79.89,-0.19474716
0.000259,0.316,0.86,79.89,-0.19474716
0.00026,0.316,0.86,79.89,-0.19474716
0.000261,0.314,0.86,79.89,-0.19474716
0.000262,0.312,0.86,79.89,-0.19474716
0.000263,0.316,0.86,79.89,-0.19474716
0.000264,0.316,0.86,79.89,-0.19474716
0.000265,0.314,0.86,79.89,-0.19474716
0.000266,0.314,0.9,79.93,-0.19485292
0.000267,0.318,0.86,79.89,-0.19474716
0.000268,0.314,0.86,79.89,-0.19474716
0.000269,0.316,0.9,79.93,-0.19485292
0.00027,0.316,0.86,79.89,-0.19474716
0.000271,0.318,0.86,79.89,-0.19474716
0.000272,0.318,0.86,79.89,-0.19474716
0.000273,0.316,0.86,79.89,-0.19474716
0.000274,0.314,0.86,79.89,-0.19474716
0.000275,0.318,0.86,79.89,-0.19474716
0.000276,0.318,0.86,79.89,-0.19474716
0.000277,0.316,0.86,79.89,-0.19474716
0.000278,0.32,0.86,79.89,-0.19474716
0.000279,0.312,0.86,79.89,-0.19474716
0.00028,0.316,0.86,79.89,-0.19474716
0.000281,0.312,0.86,79.89,-0.19474716
0.000282,0.314,0.86,79.89,-0.19474716
0.000283,0.316,0.86,79.89,-0.19474716
0.000284,0.31,0.86,79.89,-0.19474716
0.000285,0.316,0.86,79.89,-0.19474716
0.000286,0.314,0.86,79.89,-0.19474716
0.000287,0.318,0.86,79.89,-0.19474716
0.000288,0.318,0.9,79.93,-0.19485292
0.000289,0.318,0.86,79.89,-0.19474716
0.00029,0.314,0.86,79.89,-0.19474716
0.000291,0.316,0.86,79.89,-0.19474716
0.000292,0.32,0.86,79.89,-0.19474716
0.000293,0.316,0.86,79.89,-0.19474716
0.000294,0.314,0.86,79.89,-0.19474716
0.000295,0.316,0.86,79.89,-0.19474716
0.000296,0.318,0.86,79.89,-0.19474716
0.000297,0.318,0.86,79.89,-0.19474716
0.000298,0.318,0.86,79.89,-0.19474716
0.000299,0.318,0.86,79.89,-0.19474716
0.0003,0.318,0.86,79.89,-0.19474716
0.000301,0.316,0.86,79.89,-0.19474716
0.000302,0.318,0.86,79.89,-0.19474716
0.000303,0.316,0.86,79.89,-0.19474716
0.000304,0.316,0.86,79.89,-0.19474716
0.000305,0.316,0.9,79.93,-0.19485292
0.000306,0.314,0.86,79.89,-0.19474716
0.000307,0.318,0.9,79.93,-0.19485292
0.000308,0.316,0.86,79.89,-0.19474716
0.000309,0.318,0.86,79.89,-0.19474716
0.00031,0.316,0.9,79.93,-0.19485292
0.000311,0.318,0.86,79.89,-0.19474716
0.000312,0.312,0.86,79.89,-0.19474716
0.000313,0.316,0.9,79.93,-0.19485292
0.000314,0.32,0.9,79.93,-0.19485292
0.000315,0.314,0.9,79.93,-0.19485292
0.000316,0.316,0.9,79.93,-0.19485292
0.000317,0.314,0.9,79.93,-0.19485292
0.000318,0.32,0.9,79.93,-0.19485292
0.000319,0.314,0.94,79.97,-0.19495868
0.00032,0.316,0.9,79.93,-0.19485292
0.000321,0.314,0.9,79.93,-0.19485292
0.000322,0.318,0.9,79.93,-0.19485292
0.000323,0.318,0.9,79.93,-0.19485292
0.000324,0.314,0.9,79.93,-0.19485292
0.000325,0.316,0.94,79.97,-0.19495868
0.000326,0.318,0.9,79.93,-0.19485292
0.000327,0.318,0.9,79.93,-0.19485292
0.000328,0.314,0.9,79.93,-0.19485292
0.000329,0.318,0.9,79.93,-0.19485292
0.00033,0.318,0.9,79.93,-0.19485292
0.000331,0.316,0.9,79.93,-0.19485292
0.000332,0.314,0.9,79.93,-0.19485292
0.000333,0.314,0.9,79.93,-0.19485292
0.000334,0.316,0.9,79.93,-0.19485292
0.000335,0.316,0.9,79.93,-0.19485292
0.000336,0.316,0.9,79.93,-0.19485292
0.000337,0.318,0.9,79.93,-0.19485292
0.000338,0.316,0.9,79.93,-0.19485292
0.000339,0.32,0.9,79.93,-0.19485292
0.00034,0.318,0.9,79.93,-0.19485292
0.000341,0.318,0.9,79.93,-0.19485292
0.000342,0.318,0.9,79.93,-0.19485292
0.000343,0.32,0.94,79.97,-0.19495868
0.000344,0.32,0.9,79.93,-0.19485292
0.000345,0.316,0.9,79.93,-0.19485292
0.000346,0.316,0.9,79.93,-0.19485292
0.000347,0.318,0.9,79.93,-0.19485292
0.000348,0.318,0.9,79.93,-0.19485292
0.000349,0.318,0.9,79.93,-0.19485292
0.00035,0.316,0.9,79.93,-0.19485292
0.000351,0.316,0.9,79.93,-0.19485292
0.000352,0.318,0.9,79.93,-0.19485292
0.000353,0.314,0.94,79.97,-0.19495868
0.000354,0.316,0.9,79.93,-0.19485292
0.000355,0.318,0.9,79.93,-0.19485292
0.000356,0.318,0.9,79.93,-0.19485292
0.000357,0.318,0.9,79.93,-0.19485292
0.000358,0.316,0.9,79.93,-0.19485292
0.000359,0.318,0.9,79.93,-0.19485292
0.00036,0.318,0.9,79.93,-0.19485292
0.000361,0.314,0.94,79.97,-0.19495868
0.000362,0.318,0.9,79.93,-0.19485292
0.000363,0.318,0.9,79.93,-0.19485292
0.000364,0.316,0.9,79.93,-0.19485292
0.000365,0.318,0.9,79.93,-0.19485292
0.000366,0.316,0.9,79.93,-0.19485292
0.000367,0.318,0.9,79.93,-0.19485292
0.000368,0.316,0.9,79.93,-0.19485292
0.000369,0.316,0.9,79.93,-0.19485292
0.00037,0.318,0.9,79.93,-0.19485292
0.000371,0.316,0.9,79.93,-0.19485292
0.000372,0.318,0.9,79.93,-0.19485292
0.000373,0.312,0.94,79.97,-0.19495868
0.000374,0.318,0.9,79.93,-0.19485292
0.000375,0.316,0.9,79.93,-0.19485292
0.000376,0.318,0.9,79.93,-0.19485292
0.000377,0.316,0.9,79.93,-0.19485292
0.000378,0.316,0.94,79.97,-0.19495868
0.000379,0.32,0.9,79.93,-0.19485292
0.00038,0.316,0.9,79.93,-0.19485292
0.000381,0.318,0.9,79.93,-0.19485292
0.000382,0.318,0.9,79.93,-0.19485292
0.000383,0.318,0.9,79.93,-0.19485292
0.000384,0.314,0.9,79.93,-0.19485292
0.000385,0.316,0.9,79.93,-0.19485292
0.000386,0.316,0.94,79.97,-0.19495868
0.000387,0.316,0.9,79.93,-0.19485292
0.000388,0.32,0.9,79.93,-0.19485292
0.000389,0.316,0.9,79.93,-0.19485292
0.00039,0.318,0.9,79.93,-0.19485292
0.000391,0.316,0.9,79.93,-0.19485292
0.000392,0.318,0.9,79.93,-0.19485292
0.000393,0.318,0.9,79.93,-0.19485292
0.000394,0.32,0.9,79.93,-0.19485292
0.000395,0.32,0.94,79.97,-0.19495868
0.000396,0.318,0.9,79.93,-0.19485292
0.000397,0.32,0.94,79.97,-0.19495868
0.000398,0.318,0.9,79.93,-0.19485292
0.000399,0.316,0.9,79.93,-0.19485292
0.0004,0.318,0.9,79.93,-0.19485292
0.000401,0.316,0.94,79.97,-0.19495868
0.000402,0.314,0.9,79.93,-0.19485292
0.000403,0.322,0.94,79.97,-0.19495868
0.000404,0.316,0.9,79.93,-0.19485292
0.000405,0.314,0.9,79.93,-0.19485292
0.000406,0.318,0.9,79.93,-0.19485292
0.000407,0.316,0.9,79.93,-0.19485292
0.000408,0.318,0.9,79.93,-0.19485292
0.000409,0.318,0.9,79.93,-0.19485292
0.00041,0.318,0.94,79.97,-0.19495868
0.000411,0.316,0.94,79.97,-0.19495868
0.000412,0.32,0.94,79.97,-0.19495868
0.000413,0.32,0.94,79.97,-0.19495868
0.000414,0.316,0.9,79.93,-0.19485292
0.000415,0.316,0.94,79.97,-0.19495868
0.000416,0.316,0.94,79.97,-0.19495868
0.000417,0.316,0.94,79.97,-0.19495868
0.000418,0.316,0.94,79.97,-0.19495868
0.000419,0.316,0.94,79.97,-0.19495868
0.00042,0.32,0.94,79.97,-0.19495868
0.000421,0.314,0.94,79.97,-0.19495868
0.000422,0.316,0.94,79.97,-0.19495868
0.000423,0.316,0.94,79.97,-0.19495868
0.000424,0.316,0.94,79.97,-0.19495868
0.000425,0.318,0.98,80.01,-0.195067773
0.000426,0.318,0.94,79.97,-0.19495868
0.000427,0.318,0.94,79.97,-0.19495868
0.000428,0.318,0.94,79.97,-0.19495868
0.000429,0.316,0.94,79.97,-0.19495868
0.00043,0.316,0.98,80.01,-0.195067773
0.000431,0.32,0.94,79.97,-0.19495868
0.000432,0.318,0.94,79.97,-0.19495868
0.000433,0.318,0.94,79.97,-0.19495868
0.000434,0.314,0.94,79.97,-0.19495868
0.000435,0.316,0.94,79.97,-0.19495868
0.000436,0.318,0.94,79.97,-0.19495868
0.000437,0.32,0.94,79.97,-0.19495868
0.000438,0.318,0.94,79.97,-0.19495868
0.000439,0.32,0.94,79.97,-0.19495868
0.00044,0.318,0.94,79.97,-0.19495868
0.000441,0.318,0.94,79.97,-0.19495868
0.000442,0.318,0.94,79.97,-0.19495868
0.000443,0.322,0.94,79.97,-0.19495868
0.000444,0.318,0.94,79.97,-0.19495868
0.000445,0.316,0.94,79.97,-0.19495868
0.000446,0.312,0.94,79.97,-0.19495868
0.000447,0.318,0.94,79.97,-0.19495868
0.000448,0.316,0.94,79.97,-0.19495868
0.000449,0.316,0.94,79.97,-0.19495868
0.00045,0.316,0.98,80.01,-0.195067773
0.000451,0.32,0.94,79.97,-0.19495868
0.000452,0.314,0.94,79.97,-0.19495868
0.000453,0.314,0.94,79.97,-0.19495868
0.000454,0.318,0.94,79.97,-0.19495868
0.000455,0.318,0.94,79.97,-0.19495868
0.000456,0.318,0.94,79.97,-0.19495868
0.000457,0.318,0.94,79.97,-0.19495868
0.000458,0.318,0.94,79.97,-0.19495868
0.000459,0.318,0.94,79.97,-0.19495868
0.00046,0.316,0.94,79.97,-0.19495868
0.000461,0.316,0.98,80.01,-0.195067773
0.000462,0.314,0.98,80.01,-0.195067773
0.000463,0.318,0.94,79.97,-0.19495868
0.000464,0.318,0.94,79.97,-0.19495868
0.000465,0.314,0.94,79.97,-0.19495868
0.000466,0.316,0.98,80.01,-0.195067773
0.000467,0.318,0.94,79.97,-0.19495868
0.000468,0.322,0.98,80.01,-0.195067773
0.000469,0.318,0.94,79.97,-0.19495868
0.00047,0.32,0.94,79.97,-0.19495868
0.000471,0.316,0.94,79.97,-0.19495868
0.000472,0.316,0.94,79.97,-0.19495868
0.000473,0.32,0.94,79.97,-0.19495868
0.000474,0.316,0.94,79.97,-0.19495868
0.000475,0.32,0.94,79.97,-0.19495868
0.000476,0.322,0.94,79.97,-0.19495868
0.000477,0.314,0.94,79.97,-0.19495868
0.000478,0.318,0.94,79.97,-0.19495868
0.000479,0.316,0.94,79.97,-0.19495868
0.00048,0.32,0.94,79.97,-0.19495868
0.000481,0.32,0.94,79.97,-0.19495868
0.000482,0.316,0.94,79.97,-0.19495868
0.000483,0.318,0.94,79.97,-0.19495868
0.000484,0.32,0.94,79.97,-0.19495868
0.000485,0.318,0.94,79.97,-0.19495868
0.000486,0.318,0.94,79.97,-0.19495868
0.000487,0.316,0.94,79.97,-0.19495868
0.000488,0.318,0.94,79.97,-0.19495868
0.000489,0.32,0.94,79.97,-0.19495868
0.00049,0.32,0.94,79.97,-0.19495868
0.000491,0.322,0.94,79.97,-0.19495868
0.000492,0.32,0.94,79.97,-0.19495868
0.000493,0.316,0.94,79.97,-0.19495868
0.000494,0.318,0.98,80.01,-0.195067773
0.000495,0.318,0.94,79.97,-0.19495868
0.000496,0.318,0.94,79.97,-0.19495868
0.000497,0.318,0.94,79.97,-0.19495868
0.000498,0.318,0.94,79.97,-0.19495868
0.000499,0.316,0.98,80.01,-0.195067773
0.0005,0.316,0.94,79.97,-0.19495868
0.000501,0.318,0.94,79.97,-0.19495868
0.000502,0.318,0.94,79.97,-0.19495868
0.000503,0.32,0.94,79.97,-0.19495868
0.000504,0.318,0.94,79.97,-0.19495868
0.000505,0.32,0.94,79.97,-0.19495868
0.000506,0.32,0.98,80.01,-0.195067773
0.000507,0.32,0.94,79.97,-0.19495868
0.000508,0.316,0.98,80.01,-0.195067773
0.000509,0.318,0.98,80.01,-0.195067773
0.00051,0.318,0.94,79.97,-0.19495868
0.000511,0.318,0.94,79.97,-0.19495868
0.000512,0.32,0.94,79.97,-0.19495868
0.000513,0.318,0.94,79.97,-0.19495868
0.000514,0.32,0.98,80.01,-0.195067773
0.000515,0.32,0.98,80.01,-0.195067773
0.000516,0.32,1.02,80.05,-0.195186867
0.000517,0.318,0.98,80.01,-0.195067773
0.000518,0.318,0.98,80.01,-0.195067773
0.000519,0.32,0.98,80.01,-0.195067773
0.00052,0.316,0.98,80.01,-0.195067773
0.000521,0.318,0.98,80.01,-0.195067773
0.000522,0.318,0.98,80.01,-0.195067773
0.000523,0.32,0.98,80.01,-0.195067773
